1 10 20
100 200 125
201 210 89
900 1000 174
801015 147591 509
453034 924779 525
911661 740314 525
25522 457616 449
100264 79527 341
227294 396826 443
432684 11126 449
69029 53866 335
840142 844725 388
502289 443179 444
928104 693211 525
483538 702462 509
743708 346961 509
323930 48312 443
495621 487530 426
125808 260672 443
557513 260847 470
428319 846893 525
202729 148837 383
147221 177051 383
49359 595200 470
223984 362745 443
965681 814155 525
527378 82910 470
177389 422465 449
122416 439373 449
963336 440095 525
796081 931345 525
853039 8698 525
351818 146980 443
651215 178338 509
188702 57310 383
349454 90020 443
430112 765800 509
955793 560558 525
8092 61307 340
201474 535036 470
990339 310842 525
885001 549895 525
924482 862153 476
231333 660470 509
888093 340430 525
181530 682013 509
373163 650328 509
551729 981873 525
371902 582260 470
793375 765026 468
613528 667867 509
6733 142596 375
649060 341589 509
110312 883473 525
769340 198032 509
361012 769867 509
350025 239140 441
275897 248259 407
355320 855865 525
166165 614436 470
740837 520753 509
780245 453200 509
773770 975872 525
280654 247122 407
42919 30080 324
351847 215176 443
528281 789057 509
532299 292355 470
749454 189619 509
659064 225797 509
691062 610845 509
857927 283262 525
749509 348598 509
176082 21425 383
345910 413532 449
558235 223649 470
74712 461785 449
41565 28595 324
668249 350338 509
137370 461493 449
285398 527150 470
81872 712378 509
302851 138220 443
886901 470910 525
122301 540331 470
846284 976025 507
26070 148042 375
385523 718200 509
597393 235797 470
474983 609774 470
283805 769934 509
131901 754585 509
504365 428826 444
501673 324498 449
239538 209303 443
968043 211257 525
160115 168870 370
547717 388586 470
71159 888330 525
281912 208226 443
772600 467745 509
877082 601199 525
534809 148054 470
594186 480412 470
26122 813471 509
945961 799279 525
686100 353704 509
680571 266392 509
145637 363947 443
275887 427396 449
444105 593179 470
714117 265849 509
721900 608888 509
685181 728760 504
706824 834604 468
528935 681038 509
451160 854430 525
343004 854545 525
261274 998020 525
521042 188380 470
331947 664360 509
124937 696872 509
450099 607551 470
141183 963839 525
704319 894058 525
65032 594228 470
68216 54163 335
6291 721819 509
758375 184031 509
326990 997580 525
284300 191100 443
184411 995957 525
833606 339561 509
641580 596506 509
693503 267384 509
28728 940104 525
631610 155436 509
242926 978779 525
870107 163732 525
125563 438179 449
495021 10518 449
441095 385168 449
156413 490674 449
560256 855156 525
767506 567135 509
21637 40603 324
837000 150813 509
57047 510578 449
624216 862244 525
70404 350991 443
714655 544824 509
459544 723660 509
402605 808305 509
383583 815320 509
41518 296422 443
673890 388201 509
361149 667631 509
962836 61996 525
391417 664280 509
995219 491682 525
240993 433611 449
567944 688359 509
232585 434647 449
885405 917501 476
639450 623973 509
961862 736166 525
136394 99194 354
81167 648509 509
667498 865641 525
598915 379497 470
884201 529751 525
460004 890272 525
682533 678281 380
816205 44227 509
240472 202077 443
321579 943208 525
780616 347094 509
913096 843915 476
872473 532593 525
264804 881747 525
702155 415322 509
389024 402056 436
309035 645499 509
860948 7542 525
892719 719765 525
600334 972820 525
278928 313638 389
358531 252 443
323159 230281 443
791514 128005 509
73527 474846 449
839995 538088 525
643692 485530 509
244012 653499 509
32004 211151 383
137886 286466 443
374165 86695 443
549087 481216 470
983041 769155 525
37393 58991 340
50373 813900 509
629096 789796 504
916617 730522 525
757452 660740 504
455735 152672 449
827187 741130 468
43898 639678 509
590922 777973 509
841330 390254 525
570967 345166 470
282821 734689 509
230381 911029 525
272501 321619 389
116705 114370 349
929777 412393 525
236177 740534 509
973249 842246 507
311316 212073 443
962278 62014 525
682139 795649 504
60797 261241 443
633921 723834 504
714446 207654 509
946392 736726 525
146252 955371 525
995448 908084 507
423533 796007 509
982981 628380 525
556578 299373 470
838978 648208 525
949167 919057 507
474502 878264 525
40870 720869 509
669389 329056 509
349491 956159 525
356639 767541 509
696613 200981 509
508802 189455 449
146341 461032 449
338710 924994 525
44833 524168 470
115259 883596 525
391446 599386 470
442783 712408 509
379582 612079 470
39992 804072 509
746896 765265 424
662557 696020 442
642987 902485 525
753642 348140 509
119868 604677 470
200097 105385 383
546289 881941 525
