1 10 20
100 200 125
201 210 89
900 1000 174
1 1 1
564623 385869 470
736935 97756 509
356682 899255 525
525550 504831 470
993800 164871 525
466487 490086 413
66634 817244 509
209816 112191 383
389962 50891 443
935190 614129 525
272493 485666 449
910031 668873 525
865272 915549 476
183273 851955 525
53639 938185 525
289001 980695 525
342990 588528 470
774654 767919 393
559053 306445 470
853153 379059 525
71379 369035 443
995681 362417 525
224992 808806 509
760749 408285 509
928945 793802 525
360833 967607 525
324884 25684 443
229895 57825 386
468083 84052 449
420588 570561 470
188689 97456 383
160794 609532 470
345593 924386 525
851068 863142 419
811861 425288 509
149108 807140 509
408425 931677 525
459279 933779 525
578795 916419 525
541281 458770 470
76968 767335 509
941336 999983 458
995825 755703 525
938566 596744 525
871264 863183 388
263015 18313 443
11428 887370 525
405150 512035 470
638952 791320 504
833404 914886 525
190899 135476 383
440182 139290 449
176870 453827 449
726814 723787 362
856142 345894 525
791729 619033 509
933913 398736 525
648980 652752 385
641962 428724 509
479289 534595 470
118480 665742 509
159727 301134 443
574322 130050 470
770606 198088 509
234065 426538 449
507502 530231 470
53925 639427 509
69399 594417 470
870595 352291 525
579543 589477 434
75440 734818 509
900161 722781 525
832845 954028 525
401210 37605 443
806842 778603 468
456222 403361 449
399451 407706 405
401563 371985 436
328494 145661 443
223250 989515 525
262435 945870 525
448636 149321 449
105059 423188 449
580783 28078 470
36972 927581 525
168678 158631 370
969026 450414 525
343220 758291 509
390120 959605 525
760367 236290 509
798949 503567 509
541582 835642 509
364340 302897 441
911277 821222 525
288990 400221 441
942663 679483 525
205928 71962 383
715947 699947 504
892656 272495 525
574832 626004 447
581303 895049 525
122590 126883 331
125277 713932 509
281853 239826 407
970359 119822 525
835238 464423 509
309590 660662 509
244047 771645 509
302738 495418 449
359039 119980 443
206758 342600 443
428929 519450 470
1975 637850 509
638035 369045 509
508818 452411 444
96573 687506 509
57333 785433 509
87247 495789 449
997477 481609 525
532078 140074 470
264509 742533 509
225291 314006 443
621766 366862 470
91505 742054 509
917317 162805 525
167765 999061 525
583377 56665 470
10976 714482 509
455150 248555 449
178836 789318 509
466502 385109 449
454770 722586 509
594427 679812 509
217128 119345 386
388293 833001 509
17239 976975 525
242116 876366 525
519389 537110 408
612793 355668 470
219718 887669 525
2958 971912 525
531848 175159 470
118447 382815 443
52267 237048 443
335613 381218 441
983056 697322 525
847950 664392 525
949022 385271 525
343724 726132 509
655024 694107 442
294071 885979 525
580092 580787 253
477956 951717 525
560532 527292 452
254146 370089 441
710941 538369 509
800118 334270 509
955180 279014 525
39781 162492 383
642175 162463 509
777269 704728 468
492386 95767 449
847783 923875 476
816080 995557 525
137689 623805 470
346001 135227 443
45591 244306 443
995427 133157 525
397914 125791 443
19083 794961 509
816054 591409 509
328210 444846 449
808664 572386 509
206215 226065 386
575631 196343 470
637421 857332 525
597227 738581 509
68037 27961 340
704256 666791 442
45115 715057 509
58528 603677 470
405322 291419 441
638781 38224 509
563744 769766 509
792011 273013 509
579244 355233 470
717407 539717 509
88466 754420 509
559166 622062 447
594767 125512 470
900630 921505 476
364270 263170 441
362990 849009 525
962218 772157 525
874179 771667 525
802054 480771 509
782336 987939 525
382478 899526 525
873488 935204 476
315522 245216 407
232308 528597 470
554855 69194 470
896185 290163 525
822987 39835 509
963951 810411 525
765043 683671 504
879595 197415 525
438883 42398 449
55064 322438 443
67184 371944 443
390751 716384 509
527538 98210 470
776854 653226 504
321089 98697 443
471827 903232 525
110612 930643 525
440976 801600 509
85887 230076 386
594380 25178 470
184365 286027 443
91744 581155 470
270660 568597 470
470999 740557 509
196802 243141 443
70110 689628 509
855460 509306 525
140123 798628 509
157619 209421 373
837326 648726 504
319644 898396 525
337306 169403 443
540950 292635 470
436928 945408 525
285677 714490 509
7897 349976 443
158681 142140 383
646554 586002 509
682932 618437 509
240174 318545 407
750102 285983 509
121361 303229 443
561431 844335 525
372323 829318 509
282204 133857 443
546109 175607 470
893927 39199 525
370978 186695 443
850020 525532 525
395198 622976 470
143220 834682 509
