363 833445 509
345 246553 443
304 308975 443
40 289487 443
229 171739 383
625 813964 509
233 848118 525
571 991189 525
306 150999 375
462 646223 509
419 452306 449
363 589329 470
697 873465 525
621 807705 509
781 642967 509
173 651310 509
11 169374 383
523 304568 443
792 814492 509
145 467830 449
266 210773 383
24 44279 324
365 726208 509
494 518536 470
139 298216 443
828 863331 525
781 828015 509
276 219433 386
14 521521 470
517 494435 449
266 428619 449
644 964191 525
176 37936 324
242 492399 449
477 354158 443
80 217052 386
730 998133 525
82 428945 449
12 319018 443
679 674802 509
321 318257 443
220 184939 383
427 956457 525
419 408542 443
371 892311 525
264 116912 354
100 254753 443
363 373378 443
410 169373 383
28 94099 351
753 688802 509
423 738275 509
666 506668 449
107 48188 324
211 610956 470
987 976478 525
504 574906 470
352 643803 509
620 680478 509
122 242364 443
143 645014 509
19 801018 509
6 478995 449
327 195406 383
407 240960 443
187 55857 340
824 727965 509
573 427675 449
451 263277 443
146 454971 449
156 674755 509
631 829756 509
146 205727 383
437 732433 509
1 397595 443
316 734312 509
857 843367 525
474 304004 443
92 210102 383
125 331342 443
609 903980 525
357 599099 470
9 424262 449
56 896798 525
839 968025 525
700 707418 509
350 216365 383
243 199561 383
820 734124 509
34 934353 525
42 992437 525
770 709534 509
224 175044 383
133 287964 443
230 84426 351
200 835297 509
286 176136 383
357 144451 375
590 946299 525
872 932779 525
526 340836 443
62 287331 443
157 452652 449
429 657087 509
214 72401 340
262 732976 509
328 283981 443
48 295462 443
246 184083 383
232 151113 375
851 792433 509
104 33443 308
15 149314 375
89 987968 525
103 81158 351
370 747694 509
14 334488 443
810 713043 509
203 85923 351
551 422577 449
611 723679 509
14 732661 509
585 431156 449
518 996269 525
161 162982 383
204 471924 449
534 483145 449
293 960391 525
4 482041 449
491 979265 525
504 594081 470
338 178253 383
628 576674 470
402 750747 509
263 718478 509
380 672127 509
443 597694 470
637 442752 449
816 914532 525
649 796367 509
210 258868 443
2 154293 375
184 76178 340
124 293549 443
76 547846 470
233 98782 351
55 98809 351
693 564770 470
554 548042 470
485 248570 443
24 206824 383
374 727397 509
710 813268 509
44 242150 443
186 59490 340
589 540126 470
241 683765 509
251 762367 509
187 228982 386
342 150912 375
634 407249 443
816 719686 509
111 680691 509
239 135893 354
578 509683 449
377 956782 525
54 548109 470
662 842647 525
486 821039 509
276 763327 509
20 879716 525
220 507817 449
176 598175 470
18 759313 509
319 915147 525
65 304199 443
252 637535 509
58 199507 383
96 46588 324
318 632517 509
585 791980 509
394 282491 443
601 436405 449
56 220925 386
48 811907 509
174 246043 443
14 19837 279
536 771770 509
399 730833 509
67 46444 324
105 473510 449
637 404697 443
61 39113 324
455 895747 525
183 864249 525
536 442814 449
59 68659 340
609 389745 443
654 559353 470
224 184241 383
93 947646 525
94 9036 262
464 988656 525
587 360465 443
412 294770 443
36 121624 354
596 566732 470
294 732747 509
171 355508 443
726 573231 470
528 513282 470
313 139849 354
148 548496 470
348 639807 509
439 688643 509
655 821954 509
824 913187 525
192 172439 383
490 417616 449
559 891597 525
311 183513 383
559 419379 449
336 898868 525
74 112058 354
558 799863 509
55 2931 217
269 287065 443
199 904451 525
592 866676 525
154 74968 340
263 102540 351
376 954170 525
14 20523 279
217 165333 383
381 717902 509
174 937334 525
343 534593 470
706 563334 470
24 502388 449
11 76607 340
161 470786 449
331 785918 509
207 878243 525
668 770609 509
644 834519 509
91 952386 525
759 820670 509
212 223711 386
186 166312 383
292 190582 383
244 167694 383
205 415709 449
563 402829 443
8 17660 279
416 331606 443
355 755916 509
487 399841 443
196 41032 324
55 22777 279
361 798351 509
796 690828 509
712 584729 470
212 513855 470
266 84610 351
444 298405 443
35 817019 509
778 864936 525
295 539081 470
835 904916 525
170 155807 375
603 592902 470
340 611006 470
248 396596 443
508 464401 449
244 215834 383
