2922 3144 186
4269 3171 238
4465 4912 197
2443 2908 209
1741 1607 180
396 1098 179
791 4952 238
4154 2331 238
1479 2128 180
3834 2660 238
4223 2361 238
3191 2797 217
263 818 171
3088 1422 217
4461 2402 238
103 2943 217
3477 373 217
2870 3455 217
3252 4719 238
2352 2582 209
1868 26 182
3770 2202 238
3676 933 217
4425 4719 184
848 1812 182
3983 2721 238
3176 527 217
1154 4927 238
2709 1576 209
1855 4944 238
3131 2249 217
4055 474 238
2613 3067 217
1939 3508 217
3117 4273 238
4497 718 238
2159 1269 180
2364 4820 238
3235 1648 217
285 1426 182
3812 974 238
2275 676 183
2220 2604 209
1084 963 169
161 3651 217
1252 4429 238
3370 2700 217
4082 1983 238
3309 2525 217
1197 4471 238
4295 2572 238
4317 2629 238
4454 2135 238
3713 2080 238
3402 2605 217
1906 1609 180
4424 4242 215
277 1256 182
228 4955 238
2797 4073 238
2849 2826 173
3143 3252 199
2171 2627 209
2650 951 209
1328 2960 217
4635 1866 238
3279 2727 217
1274 4759 238
740 1142 179
232 1772 182
241 3655 217
1747 28 182
1748 4451 238
444 1125 179
903 3216 217
3864 1318 238
1372 679 182
1720 398 182
3703 3545 207
4604 4109 215
1763 870 182
4162 1946 238
246 4161 238
4765 1489 238
4647 2518 238
2537 3527 217
2357 4459 238
4109 4040 158
828 2672 209
4324 450 238
4266 2875 238
1819 560 182
1758 4701 238
4581 2254 238
4819 4332 215
2509 4067 238
214 4311 238
1269 855 182
2761 3601 217
2818 4953 238
601 4766 238
4382 1399 238
1372 4978 238
1808 3667 217
3309 1393 217
2565 1971 209
980 2021 182
173 1818 182
2824 2535 191
192 762 171
1090 4775 238
3914 2583 238
600 1330 182
3302 2495 217
2641 2298 209
4747 1580 238
4416 1475 238
2839 4143 238
2913 2933 217
1997 4146 238
406 4115 238
2804 675 209
2510 688 209
2017 4247 238
34 4855 238
3629 206 217
813 4716 238
4162 57 238
179 4596 238
1419 3243 217
1048 1 179
4517 822 238
3939 2628 238
2746 2017 209
1823 2599 209
950 4109 238
2828 200 209
3024 3108 186
859 2475 209
476 3938 238
3048 3521 199
3926 2671 238
1493 4953 238
248 2613 209
2050 4957 238
2839 2158 209
4464 1493 238
4015 1663 238
1915 3611 217
185 66 125
511 4565 238
3387 4812 238
371 2506 209
205 2202 182
757 3308 217
2725 3005 217
855 244 171
2098 1660 180
3342 4195 238
467 3041 217
3240 4463 238
544 1794 182
4118 2871 238
522 2831 209
3675 2026 217
1660 568 182
3276 2347 217
2750 1273 209
4294 4599 215
4716 982 238
2211 1024 182
1618 2042 180
4594 3724 215
4763 1732 238
2330 557 183
1869 2512 209
844 1478 182
4735 3911 215
2808 3374 217
3253 344 217
3501 4745 238
1069 436 179
434 4770 238
1260 4159 238
4802 2880 238
4891 3294 238
2323 295 183
2928 3217 199
1889 4135 238
923 4948 238
2225 4654 238
2847 2432 209
4825 3610 238
1533 574 182
2148 961 182
3293 4535 238
562 38 144
4974 4633 210
2523 4815 238
978 2290 183
4156 3668 238
3188 1059 217
1559 2390 183
1967 2249 183
626 3063 217
2057 4154 238
1034 3361 217
2595 4182 238
487 2166 182
4889 307 238
2588 4689 238
260 1255 182
415 1686 182
1909 2838 209
3895 505 238
3704 4011 238
57 700 145
4533 4173 215
3736 2857 238
3388 2599 217
4263 4128 202
2820 3798 238
973 4149 238
228 976 179
2224 3617 217
838 2311 183
3556 737 217
4210 2049 238
3738 1053 238
822 913 179
4754 4426 184
3974 2640 238
3955 767 238
4281 703 238
4355 2867 238
1234 1627 177
1176 513 182
2235 4747 238
1732 311 182
4542 3616 238
2669 2667 147
2893 4298 238
1985 4450 238
4120 4995 215
4227 1590 238
729 2732 209
4907 508 238
718 4354 238
371 4033 238
1668 4770 238
4299 3495 238
971 274 179
619 2008 182
3731 4741 215
2603 4035 238
2326 2587 209
4806 3862 215
3304 1092 217
2597 3712 238
1526 4082 238
4688 782 238
855 2465 209
2380 3364 217
424 578 142
3934 4919 215
3466 4590 238
2021 2046 157
942 4498 238
3031 1582 217
163 1897 182
3842 1026 238
765 334 171
1757 2846 209
183 4491 238
2746 4603 238
3594 4311 238
4869 1908 238
1106 3590 217
1988 2796 209
1747 2102 175
585 260 144
2372 1604 183
2187 1908 175
4530 3691 238
2705 1149 209
2970 3560 199
3166 831 217
2702 3115 217
4073 3735 189
268 1745 182
3080 1075 217
4980 3427 238
2233 3614 217
661 4659 238
100 2922 217
1292 2844 209
543 1519 182
3026 477 217
312 4482 238
3385 1534 217
