328709 962952 525
529063 830731 509
456885 578424 470
948225 104401 525
901455 510291 525
418204 428886 418
396842 492974 449
204578 69766 383
208623 792051 509
307346 27041 443
336799 407523 441
460930 300710 449
781369 339390 509
930908 625195 525
542335 322073 470
717281 531654 509
354116 621150 470
820049 488929 509
482292 236622 449
973633 497019 525
926863 168489 525
443612 87083 449
422250 151171 449
229986 727963 509
499610 450248 444
332754 685237 509
627786 65721 509
486337 958907 525
72357 997587 525
221896 283392 443
567743 980269 525
8269 189852 383
379524 279347 441
845457 147126 525
507700 894819 525
264621 155217 443
952270 561107 525
734599 745280 424
713236 809368 468
520972 386160 470
525018 108446 470
358162 343435 441
653193 723918 504
777324 617104 509
97765 390206 443
247303 941589 525
593151 638467 509
33677 582469 470
670511 937544 525
136445 539744 470
798687 553016 509
290029 813413 509
243258 219304 443
760007 403478 509
738644 467566 509
546380 44358 470
550425 766643 509
649148 1633 509
944180 382115 525
802732 275302 509
123173 48403 354
272711 599787 470
884137 296665 525
59085 240667 443
695919 595742 509
161853 197942 365
824095 211214 509
315436 471611 449
268666 877501 525
50994 61676 340
29632 125764 354
571788 702555 509
841412 424841 525
674556 659830 442
969588 40313 525
93720 933499 525
414159 706600 509
563698 257985 470
909545 954862 507
350071 898864 525
986905 253939 525
187260 856139 525
115082 603832 470
606423 129809 470
294074 535699 470
76402 454293 449
55039 518381 470
862775 360753 525
866820 83038 525
965543 318027 525
994996 432931 525
119127 326118 443
439567 364798 449
589106 916181 525
200533 347480 443
375479 557062 470
12314 912136 525
478247 514336 470
140490 262030 443
631831 788006 504
585060 193897 470
101810 112491 354
80447 176579 383
888183 18950 525
157808 475656 449
990951 976224 427
285983 91129 443
144535 984314 525
464975 22996 449
614513 574379 434
225941 5678 386
400887 215259 443
37722 304755 443
503655 172534 449
165898 920226 525
922818 446203 525
610468 852093 525
392797 770688 509
371434 834776 509
179170 411568 449
183215 133854 383
16359 368843 443
311391 749325 509
435522 642512 509
755962 681192 504
905500 232577 525
251348 663875 509
691874 873456 525
121718 380661 443
869411 872002 432
395388 559653 470
801278 341981 509
719872 320618 509
783960 128355 509
626332 132400 509
348617 231123 441
583606 260576 470
698510 384706 509
591697 705146 509
630377 854685 525
181761 466112 449
613059 641058 509
822641 277893 509
177716 743826 509
779915 406069 509
527609 897410 525
53585 850639 525
459476 367389 449
378070 346026 423
442158 153762 449
284529 423387 449
741235 256531 509
241804 551562 470
356708 410114 449
249894 730554 509
288575 880092 525
839958 491520 525
271257 666466 509
480838 303301 449
570334 769234 509
438113 431477 387
185806 188397 347
711782 876047 525
117673 658376 509
36268 637013 509
100356 444749 449
677147 448794 509
399433 281938 441
634422 576970 509
14905 701101 509
908091 21541 525
946771 171080 525
498156 516927 470
929454 957453 507
139036 594288 470
228532 794642 509
96311 722464 509
844003 213805 525
369980 167035 443
775870 683783 504
694465 662421 442
758553 470157 509
335345 474202 449
57631 572925 470
292620 602378 470
673102 726509 504
566289 46949 470
604969 196488 470
890774 807914 525
587651 982860 525
797233 619695 509
886728 85629 525
754507 747871 424
502201 239213 449
762598 192443 509
434068 709191 509
352662 687829 509
416750 495565 444
993542 765189 525
715827 598333 509
950816 893365 507
331300 751916 509
224487 337936 443
263167 487474 449
548971 833322 509
245849 273848 407
455431 645103 509
544926 111037 470
412705 773279 509
160399 530200 470
420795 217850 449
826686 179 509
10860 978815 525
74948 786551 509
651739 790597 504
374025 623741 470
609014 918772 525
989497 42904 525
882683 363344 525
655785 512882 509
207169 858730 525
904046 299256 525
848048 936090 476
203124 402024 443
805323 4267 509
818595 555608 509
78993 508837 449
484883 25587 449
669057 4224 509
733145 811959 468
309937 816004 509
32223 914727 525
267212 209760 443
647694 68312 509
540881 388752 470
313982 538290 470
865366 149717 525
562244 324664 470
506246 961498 525
861321 427432 525
463521 89675 449
476793 581015 470
737190 534245 509
143081 316573 443
327255 295211 384
391343 837367 509
968134 106992 525
690420 940135 525
925409 235168 525
305892 359299 441
